[
  {
    "label":"white",
    "value":null,
    "hex":"#ffffff"
  },
  {
    "label":"ivory",
    "value":null,
    "hex":"#fffff0"
  },
  {
    "label":"lightyellow",
    "value":null,
    "hex":"#ffffe0"
  },
  {
    "label":"yellow",
    "value":null,
    "hex":"#ffff00"
  },
  {
    "label":"snow",
    "value":null,
    "hex":"#fffafa"
  },
  {
    "label":"floralwhite",
    "value":null,
    "hex":"#fffaf0"
  },
  {
    "label":"lemonchiffon",
    "value":null,
    "hex":"#fffacd"
  },
  {
    "label":"cornsilk",
    "value":null,
    "hex":"#fff8dc"
  },
  {
    "label":"seashell",
    "value":null,
    "hex":"#fff5ee"
  },
  {
    "label":"lavenderblush",
    "value":null,
    "hex":"#fff0f5"
  },
  {
    "label":"papayawhip",
    "value":null,
    "hex":"#ffefd5"
  },
  {
    "label":"blanchedalmond",
    "value":null,
    "hex":"#ffebcd"
  },
  {
    "label":"mistyrose",
    "value":null,
    "hex":"#ffe4e1"
  },
  {
    "label":"bisque",
    "value":null,
    "hex":"#ffe4c4"
  },
  {
    "label":"moccasin",
    "value":null,
    "hex":"#ffe4b5"
  },
  {
    "label":"navajowhite",
    "value":null,
    "hex":"#ffdead"
  },
  {
    "label":"peachpuff",
    "value":null,
    "hex":"#ffdab9"
  },
  {
    "label":"gold",
    "value":null,
    "hex":"#ffd700"
  },
  {
    "label":"pink",
    "value":null,
    "hex":"#ffc0cb"
  },
  {
    "label":"lightpink",
    "value":null,
    "hex":"#ffb6c1"
  },
  {
    "label":"orange",
    "value":null,
    "hex":"#ffa500"
  },
  {
    "label":"lightsalmon",
    "value":null,
    "hex":"#ffa07a"
  },
  {
    "label":"darkorange",
    "value":null,
    "hex":"#ff8c00"
  },
  {
    "label":"coral",
    "value":null,
    "hex":"#ff7f50"
  },
  {
    "label":"hotpink",
    "value":null,
    "hex":"#ff69b4"
  },
  {
    "label":"tomato",
    "value":null,
    "hex":"#ff6347"
  },
  {
    "label":"orangered",
    "value":null,
    "hex":"#ff4500"
  },
  {
    "label":"deeppink",
    "value":null,
    "hex":"#ff1493"
  },
  {
    "label":"magenta",
    "value":null,
    "hex":"#ff00ff"
  },
  {
    "label":"red",
    "value":null,
    "hex":"#ff0000"
  },
  {
    "label":"oldlace",
    "value":null,
    "hex":"#fdf5e6"
  },
  {
    "label":"lightgoldenrodyellow",
    "value":null,
    "hex":"#fafad2"
  },
  {
    "label":"linen",
    "value":null,
    "hex":"#faf0e6"
  },
  {
    "label":"antiquewhite",
    "value":null,
    "hex":"#faebd7"
  },
  {
    "label":"salmon",
    "value":null,
    "hex":"#fa8072"
  },
  {
    "label":"ghostwhite",
    "value":null,
    "hex":"#f8f8ff"
  },
  {
    "label":"mintcream",
    "value":null,
    "hex":"#f5fffa"
  },
  {
    "label":"whitesmoke",
    "value":null,
    "hex":"#f5f5f5"
  },
  {
    "label":"beige",
    "value":null,
    "hex":"#f5f5dc"
  },
  {
    "label":"wheat",
    "value":null,
    "hex":"#f5deb3"
  },
  {
    "label":"sandybrown",
    "value":null,
    "hex":"#f4a460"
  },
  {
    "label":"azure",
    "value":null,
    "hex":"#f0ffff"
  },
  {
    "label":"honeydew",
    "value":null,
    "hex":"#f0fff0"
  },
  {
    "label":"aliceblue",
    "value":null,
    "hex":"#f0f8ff"
  },
  {
    "label":"khaki",
    "value":null,
    "hex":"#f0e68c"
  },
  {
    "label":"lightcoral",
    "value":null,
    "hex":"#f08080"
  },
  {
    "label":"palegoldenrod",
    "value":null,
    "hex":"#eee8aa"
  },
  {
    "label":"violet",
    "value":null,
    "hex":"#ee82ee"
  },
  {
    "label":"darksalmon",
    "value":null,
    "hex":"#e9967a"
  },
  {
    "label":"lavender",
    "value":null,
    "hex":"#e6e6fa"
  },
  {
    "label":"lightcyan",
    "value":null,
    "hex":"#e0ffff"
  },
  {
    "label":"burlywood",
    "value":null,
    "hex":"#deb887"
  },
  {
    "label":"plum",
    "value":null,
    "hex":"#dda0dd"
  },
  {
    "label":"gainsboro",
    "value":null,
    "hex":"#dcdcdc"
  },
  {
    "label":"crimson",
    "value":null,
    "hex":"#dc143c"
  },
  {
    "label":"palevioletred",
    "value":null,
    "hex":"#db7093"
  },
  {
    "label":"goldenrod",
    "value":null,
    "hex":"#daa520"
  },
  {
    "label":"orchid",
    "value":null,
    "hex":"#da70d6"
  },
  {
    "label":"thistle",
    "value":null,
    "hex":"#d8bfd8"
  },
  {
    "label":"lightgrey",
    "value":null,
    "hex":"#d3d3d3"
  },
  {
    "label":"tan",
    "value":null,
    "hex":"#d2b48c"
  },
  {
    "label":"chocolate",
    "value":null,
    "hex":"#d2691e"
  },
  {
    "label":"peru",
    "value":null,
    "hex":"#cd853f"
  },
  {
    "label":"indianred",
    "value":null,
    "hex":"#cd5c5c"
  },
  {
    "label":"mediumvioletred",
    "value":null,
    "hex":"#c71585"
  },
  {
    "label":"silver",
    "value":null,
    "hex":"#c0c0c0"
  },
  {
    "label":"darkkhaki",
    "value":null,
    "hex":"#bdb76b"
  },
  {
    "label":"rosybrown",
    "value":null,
    "hex":"#bc8f8f"
  },
  {
    "label":"mediumorchid",
    "value":null,
    "hex":"#ba55d3"
  },
  {
    "label":"darkgoldenrod",
    "value":null,
    "hex":"#b8860b"
  },
  {
    "label":"firebrick",
    "value":null,
    "hex":"#b22222"
  },
  {
    "label":"powderblue",
    "value":null,
    "hex":"#b0e0e6"
  },
  {
    "label":"lightsteelblue",
    "value":null,
    "hex":"#b0c4de"
  },
  {
    "label":"paleturquoise",
    "value":null,
    "hex":"#afeeee"
  },
  {
    "label":"greenyellow",
    "value":null,
    "hex":"#adff2f"
  },
  {
    "label":"lightblue",
    "value":null,
    "hex":"#add8e6"
  },
  {
    "label":"darkgrey",
    "value":null,
    "hex":"#a9a9a9"
  },
  {
    "label":"brown",
    "value":null,
    "hex":"#a52a2a"
  },
  {
    "label":"sienna",
    "value":null,
    "hex":"#a0522d"
  },
  {
    "label":"yellowgreen",
    "value":null,
    "hex":"#9acd32"
  },
  {
    "label":"darkorchid",
    "value":null,
    "hex":"#9932cc"
  },
  {
    "label":"palegreen",
    "value":null,
    "hex":"#98fb98"
  },
  {
    "label":"darkviolet",
    "value":null,
    "hex":"#9400d3"
  },
  {
    "label":"mediumpurple",
    "value":null,
    "hex":"#9370db"
  },
  {
    "label":"lightgreen",
    "value":null,
    "hex":"#90ee90"
  },
  {
    "label":"darkseagreen",
    "value":null,
    "hex":"#8fbc8f"
  },
  {
    "label":"saddlebrown",
    "value":null,
    "hex":"#8b4513"
  },
  {
    "label":"darkmagenta",
    "value":null,
    "hex":"#8b008b"
  },
  {
    "label":"darkred",
    "value":null,
    "hex":"#8b0000"
  },
  {
    "label":"blueviolet",
    "value":null,
    "hex":"#8a2be2"
  },
  {
    "label":"lightskyblue",
    "value":null,
    "hex":"#87cefa"
  },
  {
    "label":"skyblue",
    "value":null,
    "hex":"#87ceeb"
  },
  {
    "label":"grey",
    "value":null,
    "hex":"#808080"
  },
  {
    "label":"olive",
    "value":null,
    "hex":"#808000"
  },
  {
    "label":"purple",
    "value":null,
    "hex":"#800080"
  },
  {
    "label":"maroon",
    "value":null,
    "hex":"#800000"
  },
  {
    "label":"aquamarine",
    "value":null,
    "hex":"#7fffd4"
  },
  {
    "label":"chartreuse",
    "value":null,
    "hex":"#7fff00"
  },
  {
    "label":"lawngreen",
    "value":null,
    "hex":"#7cfc00"
  },
  {
    "label":"mediumslateblue",
    "value":null,
    "hex":"#7b68ee"
  },
  {
    "label":"lightslategrey",
    "value":null,
    "hex":"#778899"
  },
  {
    "label":"slategrey",
    "value":null,
    "hex":"#708090"
  },
  {
    "label":"olivedrab",
    "value":null,
    "hex":"#6b8e23"
  },
  {
    "label":"slateblue",
    "value":null,
    "hex":"#6a5acd"
  },
  {
    "label":"dimgrey",
    "value":null,
    "hex":"#696969"
  },
  {
    "label":"mediumaquamarine",
    "value":null,
    "hex":"#66cdaa"
  },
  {
    "label":"rebeccapurple",
    "value":null,
    "hex":"#663399"
  },
  {
    "label":"cornflowerblue",
    "value":null,
    "hex":"#6495ed"
  },
  {
    "label":"cadetblue",
    "value":null,
    "hex":"#5f9ea0"
  },
  {
    "label":"darkolivegreen",
    "value":null,
    "hex":"#556b2f"
  },
  {
    "label":"indigo",
    "value":null,
    "hex":"#4b0082"
  },
  {
    "label":"mediumturquoise",
    "value":null,
    "hex":"#48d1cc"
  },
  {
    "label":"darkslateblue",
    "value":null,
    "hex":"#483d8b"
  },
  {
    "label":"steelblue",
    "value":null,
    "hex":"#4682b4"
  },
  {
    "label":"royalblue",
    "value":null,
    "hex":"#4169e1"
  },
  {
    "label":"turquoise",
    "value":null,
    "hex":"#40e0d0"
  },
  {
    "label":"mediumseagreen",
    "value":null,
    "hex":"#3cb371"
  },
  {
    "label":"limegreen",
    "value":null,
    "hex":"#32cd32"
  },
  {
    "label":"darkslategrey",
    "value":null,
    "hex":"#2f4f4f"
  },
  {
    "label":"seagreen",
    "value":null,
    "hex":"#2e8b57"
  },
  {
    "label":"forestgreen",
    "value":null,
    "hex":"#228b22"
  },
  {
    "label":"lightseagreen",
    "value":null,
    "hex":"#20b2aa"
  },
  {
    "label":"dodgerblue",
    "value":null,
    "hex":"#1e90ff"
  },
  {
    "label":"midnightblue",
    "value":null,
    "hex":"#191970"
  },
  {
    "label":"cyan",
    "value":null,
    "hex":"#00ffff"
  },
  {
    "label":"springgreen",
    "value":null,
    "hex":"#00ff7f"
  },
  {
    "label":"lime",
    "value":null,
    "hex":"#00ff00"
  },
  {
    "label":"mediumspringgreen",
    "value":null,
    "hex":"#00fa9a"
  },
  {
    "label":"darkturquoise",
    "value":null,
    "hex":"#00ced1"
  },
  {
    "label":"deepskyblue",
    "value":null,
    "hex":"#00bfff"
  },
  {
    "label":"darkcyan",
    "value":null,
    "hex":"#008b8b"
  },
  {
    "label":"teal",
    "value":null,
    "hex":"#008080"
  },
  {
    "label":"green",
    "value":null,
    "hex":"#008000"
  },
  {
    "label":"darkgreen",
    "value":null,
    "hex":"#006400"
  },
  {
    "label":"blue",
    "value":null,
    "hex":"#0000ff"
  },
  {
    "label":"mediumblue",
    "value":null,
    "hex":"#0000cd"
  },
  {
    "label":"darkblue",
    "value":null,
    "hex":"#00008b"
  },
  {
    "label":"navy",
    "value":null,
    "hex":"#000080"
  },
  {
    "label":"black",
    "value":null,
    "hex":"#000000"
  }
]
